@relation total_data_wiki50

@attribute POS {' ;JJ;NN;',' VBG;IN;',' ;IN;NN',' VBN;IN',' VBP;JJ',' NN;NN',' VBN;RB',' NN;NNS',' ;JJ;NN',' ;NN;NNS',' JJ;NN',' VB;IN',' NNP;NN',' ;VBG;NN',' JJ;NN;',' VB;DT;NN',' ;NN;NN',' ;JJ;NNS',' NNP;NNP',' JJ;NNS',' NNS;NN',' ;IN;NN;',' NN;NNS;',' VBG;NN',' VBG;JJ;',' ;VBN;RB;',' NNP;NNP;',' ;NNS;NNS',' NN;NN;',' NNS;IN;NN',' VBG;NNS',' JJ;NNS;',' ;NNS;NN',' JJ;JJ;NN;',' VBD;IN;NN',' NN;IN;NN',' VBN;NN',' NN;NN;NNS',' VBN;IN;',' VBD;RB',' VBG;IN',' VBP;DT;NN',' VBG;DT;NN',' VBN;JJ;',' VB;JJ;',' VBD;DT;NN',' NNS;NNS',' VBZ;NN',' NNP;NNS',' VBN;NNS',' VB;NN',' VBZ;RB',' ;VBD;RB',' ;VBD;RB;',' VB;IN;',' VBG;RB',' VBD;IN;',' ;JJ;NNS;',' VB;RB',' VBZ;JJ',' VB;NNP;',' ;NNP;NN',' ;VBZ;RB',' ;NNP;IN;NN',' VBN;NN;',' NN;NN;NN',' ;IN;NNS',' NNP;NNS;',' ;NN;NN;NN',' ;NNS;IN;JJ;NNS;',' VBN;IN;NN;',' ;VBN;IN',' VBN;JJ',' ;VBG;IN',' VBD;JJ;',' VBN;NNS;',' ;VBP;NN;',' VB;NNS',' ;VBZ;IN',' NN;IN;DT;NN',' ;NN;NN;',' VBN;PRP$;NN',' VB;IN;NN',' VB;DT;JJ;NN',' ;IN;NNP',' VBZ;IN;',' VBD;IN',' ;VBN;NN',' VBZ;IN',' VBD;NN',' VBD;JJ',' NNP;IN;NN',' ;VB;NNS',' VBZ;DT;NN;',' VBZ;IN;NN',' JJ;JJ;NN',' VBN;DT;JJ;NN',' ;NN;NNS;',' VB;JJ',' VBD;NNP',' VBZ;DT;NN',' VBP;NNS',' NNP;NN;NNS',' NNP;CC;NNP',' NN;NN;NN;NN',' ;JJ;JJ;JJ;NNS',' VB;JJ;JJ;JJ;',' VBZ;JJ;',' VBN;DT;NN',' NN;NN;NN;NNS',' NNP;IN;DT;NN',' VBN;IN;DT;NN',' ;VBG;NNS',' VB;RP;',' NNP;NN;',' VBP;NN',' IN;NN;',' VBP;NN;',' ;NNP;NNP',' VBG;IN;NNS',' ;VBZ;NN',' VB;NN;',' NNS;NN;NNS',' VBG;IN;NN',' VBD;NNS',' ;VBZ;RB;JJ;',' ;NNS;IN;NN',' ;IN;NNS;',' ;VBZ;RB;',' ;VBN;TO;VB;',' ;NNS;IN;NN;',' ;VBG;IN;DT;NN;',' ;VBG;IN;',' ;VBG;JJ;',' ;VBZ;IN;',' ;VBG;NN;',' ;NN;IN;NN;',' ;VBN;IN;',' ;VBP;JJ;',' ;VBZ;DT;JJ;NN;',' ;NN;IN;DT;NN;',' ;VBN;IN;DT;NN;',' ;VBP;RB;',' ;VBZ;DT;NN;',' ;NN;CC;NN;',' ;VBD;RB;IN;',' ;NN;IN;JJ;NN;',' ;NNP;NNP;',' ;VBZ;JJ;',' ;VBN;RB;IN;IN;',' ;NNS;IN;DT;NN;',' ;VBP;NNP;',' ;IN;NNP;',' ;NN;CC;NNP;',' ;NN;NN;NN;',' ;VB;DT;JJ;NN;',' ;VBN;IN;NNS;',' ;NNS;NN;',' ;VBZ;NN;',' ;VB;RB',' ;NN;IN;JJ;NNS;',' ;VBD;IN;',' ;VBZ;RP;',' ;VBZ;RB;RB',' ;VB;TO;VB;',' ;VBZ;RB;IN;',' ;JJ;JJ;NN;',' ;VB;IN;',' ;NN;IN;NN',' IN;NNP;',' ;VBZ;TO;VB;',' ;VBN;IN;NNP;',' ;NN;IN;DT;NN',' ;VBD;NNP;',' ;NNP;CC;NNP;',' ;VBG;NNS;',' ;VBD;JJ;',' ;VBG;IN;DT;NNS;',' ;VBN;RB;IN;',' ;NNS;IN;JJ;NN;',' ;VBN;JJ;',' ;VBD;IN;NN;',' ;VBD;IN;DT;NN;',' ;NNS;CC;NN;',' ;VB;RB;IN;',' ;VBD;TO;VB;',' ;JJ;NNP;',' ;VBD;PRP$;NN;',' ;VB;NN;',' ;VBD;DT;JJ;NN;',' ;NNS;CC;NNS;',' ;VBD;IN;NNP;',' ;VBN;IN;PRP$;NNS;',' ;VBG;IN;IN;',' ;VBN;NNP;',' ;VBD;DT;NN;',' ;VBG;DT;JJ;NN',' ;VBN;NN;'}
@attribute PMI numeric
@attribute CHI numeric
@attribute LOGL numeric
@attribute Class {Yes,No}

@data
' ;JJ;NN;',7.34,516.11,20.66,Yes
' VBG;IN;',8.81,105.36,10.24,Yes
' ;IN;NN',9.37,865.88,23.36,Yes
' ;IN;NN',9.84,7154.56,87.94,Yes
' VBN;IN',10.68,1779.27,25.56,Yes
' VBP;JJ',10.73,448.26,13.05,Yes
' NN;NN',11.38,726.92,13.99,Yes
' VBN;RB',11.79,904.65,14.46,Yes
' NN;NN',11.84,956.98,14.56,Yes
' NN;NN',12.29,1803.56,15.83,Yes
' NN;NNS',12.62,2528.21,16.54,Yes
' NN;NNS',12.84,2071.55,16.11,Yes
' ;JJ;NN',12.86,3205.45,17.03,Yes
' NN;NN',13.02,2534.82,16.53,Yes
' ;NN;NNS',13.04,2203.44,16.31,Yes
' VBN;IN',13.14,2233.91,16.35,Yes
' JJ;NN',13.17,12467.81,33.59,Yes
' NN;NN',13.29,2872.93,16.78,Yes
' VB;IN',13.36,2606.4,16.69,Yes
' NN;NN',13.43,2988.07,16.89,Yes
' ;NN;NNS',13.44,45257.43,69.53,Yes
' VBN;IN',13.46,22636.27,50.37,Yes
' NNP;NN',13.57,2851.8,16.8,Yes
' ;VBG;NN',13.6,3390.44,17.12,Yes
' JJ;NN',13.67,5986.36,18.36,Yes
' VBN;IN',13.72,14668.54,34.37,Yes
' JJ;NN;',13.94,6465.35,18.45,Yes
' NN;NN',13.97,36986.7,38.22,Yes
' JJ;NN;',13.97,47541.67,54.87,Yes
' ;JJ;NN',13.98,18126.95,36.57,Yes
' VB;DT;NN',14,4617.82,17.78,Yes
' ;NN;NN',14,270805.84,85.67,Yes
' NN;NN',14.11,29588.76,37.21,Yes
' NN;NN',14.44,7518.01,18.82,Yes
' NN;NN',14.55,8081.93,18.91,Yes
' NN;NN',14.57,5704.6,18.3,Yes
' ;NN;NN',14.58,55484.25,55.79,Yes
' NN;NN',14.66,10776.25,19.5,Yes
' JJ;NN',14.68,30203.12,37.16,Yes
' NN;NN',14.76,113154.08,78.2,Yes
' NN;NN',14.78,10102.67,19.51,Yes
' ;JJ;NNS',14.78,9698.52,19.37,Yes
' ;NN;NN',14.88,9461.95,19.32,Yes
' NNP;NN',14.91,11021.18,19.68,Yes
' JJ;NN;',14.94,8081.93,18.9,Yes
' NN;NN',15.02,9796.5,19.31,Yes
' JJ;NN',15.09,8737.31,19.13,Yes
' NN;NN',15.11,8015.13,18.89,Yes
' JJ;NN',15.14,38368.73,38.19,Yes
' NN;NNS',15.17,10428.59,19.9,Yes
' NN;NN',15.19,11343.47,19.61,Yes
' ;NN;NN',15.19,15770.58,20.51,Yes
' JJ;NN',15.22,108438.85,42.72,Yes
' NN;NN',15.34,14263,20.09,Yes
' NNP;NNP',15.4,96994.21,24.23,Yes
' JJ;NNS',15.55,14921.34,20.62,Yes
' ;NN;NN',15.67,66130.1,40.49,Yes
' NN;NN',15.67,66130.1,40.49,Yes
' NNS;NN',15.72,17634.49,20.59,Yes
' NN;NN',15.72,17961.08,20.6,Yes
' NN;NNS',15.76,13195.63,19.95,Yes
' JJ;NN',15.84,16867.73,20.5,Yes
' JJ;NN;',15.84,13470.56,19.96,Yes
' ;NN;NNS',15.91,12678.11,19.84,Yes
' VBN;IN',15.95,253430.1,10000,Yes
' NN;NNS',15.99,121542.89,60.8,Yes
' VBN;IN',16.04,16300.72,10000,Yes
' ;IN;NN;',16.04,16300.72,10000,Yes
' JJ;NN',16.11,16867.73,20.5,Yes
' NN;NN',16.11,17961.08,20.57,Yes
' NN;NNS;',16.28,498829.52,49.58,Yes
' NNP;NNP',16.79,937495.25,202.48,Yes
' NN;NN',16.87,35923.15,22.04,Yes
' VBG;NN',16.89,26942.11,21.42,Yes
' VBG;NN',16.89,80828.34,23.82,Yes
' JJ;NN',16.95,303105.04,68.79,Yes
' VBG;JJ;',16.98,35923.15,22.4,Yes
' NN;NN',16.98,25524.06,21.39,Yes
' NN;NNS',16.98,24247.8,21.2,Yes
' NN;NN',17,727455.09,116.09,Yes
' ;VBN;RB;',17.05,34032.41,22.07,Yes
' NN;NN',17.13,40413.67,22.35,Yes
' NNP;NNP;',17.15,2835225.67,250.9,Yes
' JJ;NN',17.3,498829.52,49.58,Yes
' ;NNS;NNS',17.31,931450.96,139.11,Yes
' NN;NN;',17.33,2663180.41,380.03,Yes
' JJ;NN',17.36,30310,22.06,Yes
' NNS;IN;NN',17.4,64662.48,23.32,Yes
' NN;NN',17.4,461876.96,70.64,Yes
' ;JJ;NN',17.43,64662.48,23.61,Yes
' JJ;NN',17.44,193987.43,46.17,Yes
' NN;NNS',17.5,48496.61,22.7,Yes
' VBG;NNS',17.57,58783.98,23.21,Yes
' NN;NN',17.72,55424.84,22.98,Yes
' JJ;NN;',17.84,349179.77,10000,Yes
' JJ;NNS;',17.89,529061.8,50.44,Yes
' NN;NN',17.89,69281.29,23.75,Yes
' JJ;NN',17.98,277128.18,10000,Yes
' NN;NNS',17.98,69281.29,23.75,Yes
' NN;NN',17.98,46187.2,22.58,Yes
' ;NNS;NN',18.13,415690.77,10000,Yes
' JJ;JJ;NN;',18.19,74610.7,10000,Yes
' VBD;IN;NN',18.3,96994.21,10000,Yes
' JJ;NN',18.3,121243.02,24.93,Yes
' JJ;NN',18.3,161657.69,25.41,Yes
' NN;NN',18.3,581968.28,50.86,Yes
' NN;NN',18.3,80828.34,23.82,Yes
' JJ;NN',18.3,48496.61,23.02,Yes
' NN;NN',18.36,77595.17,10000,Yes
' VBG;NN',18.4,363729.05,48.81,Yes
' NN;NN',18.43,88176.47,24.25,Yes
' NN;NN',18.43,69281.29,23.75,Yes
' NN;NNS',18.43,264529.4,47.46,Yes
' NN;NNS',18.57,88176.47,10000,Yes
' ;JJ;NN',18.57,96994.21,24.23,Yes
' ;JJ;NNS',18.72,107771.46,24.68,Yes
' NN;NNS',18.72,107771.46,24.5,Yes
' JJ;NN',18.89,114111.01,10000,Yes
' NN;NN',18.98,727461.09,51.5,Yes
' NN;NN',19.08,161657.69,25.55,Yes
' NN;IN;NN',19.08,1010361.8,75.69,Yes
' NN;NNS',19.13,387977.85,48.42,Yes
' NN;NN',19.3,387979.85,10000,Yes
' ;NN;NN',19.43,161657.69,10000,Yes
' JJ;NN',19.57,161657.69,25.55,Yes
' JJ;NN',19.57,193989.43,10000,Yes
' NN;NN',19.57,215543.92,26.09,Yes
' NN;NNS',19.57,2376375.71,10000,Yes
' ;NN;NNS',19.57,193989.43,25.95,Yes
' VBN;NN',19.57,161657.69,25.55,Yes
' NN;NN',19.64,484973.06,10000,Yes
' NN;NN',19.72,193989.43,10000,Yes
' NN;NNS',19.89,323316.38,27.14,Yes
' NN;NNS',19.89,242487.03,26.46,Yes
' JJ;NNS',20.3,323316.38,27.14,Yes
' NN;NN',20.3,323316.38,27.14,Yes
' NN;NN',20.3,242487.03,26.46,Yes
' JJ;NNS',20.57,242487.03,26.46,Yes
' NN;NN',20.57,484975.06,10000,Yes
' NN;NNS',21.89,969951.13,10000,Yes
' NN;NN',21.89,1939903.25,10000,Yes
' NN;NNS',22.89,1939903.25,10000,Yes
' NN;NNS',22.89,1939903.25,10000,Yes
' NN;NN;NNS',22.89,1939903.25,10000,Yes
' NN;NNS',22.89,1939903.25,10000,Yes
' VBN;IN;',9.07,2930.47,65.55,Yes
' ;JJ;NN;',9.7,12212.64,145.81,Yes
' ;IN;NN',10.44,2408.54,38.18,Yes
' JJ;NN',10.84,520.48,13.32,Yes
' VBD;RB',11.02,555.64,13.45,Yes
' VBN;IN;',11.35,691.82,13.92,Yes
' JJ;NN',11.41,718.28,13.98,Yes
' ;IN;NN',11.53,738.01,14.06,Yes
' ;NN;NN',11.85,1099.34,14.83,Yes
' VBG;IN',12.04,1085.78,14.83,Yes
' NN;NN',12.12,1196.47,15.01,Yes
' NN;NN',12.39,2041,16.08,Yes
' ;JJ;NN;',12.41,17250.68,61.8,Yes
' VBG;NN',12.6,1553.41,15.53,Yes
' NN;NN',12.72,2019.73,16.06,Yes
' ;JJ;NN',12.88,1836.03,15.87,Yes
' NN;NN',12.88,12929.7,33.64,Yes
' ;VBG;NN',12.98,2019.73,16.07,Yes
' JJ;NNS',12.99,2098.46,16.18,Yes
' VBG;NN',13.07,2364.74,16.39,Yes
' VBG;NN',13.14,2203.44,16.24,Yes
' JJ;NN',13.26,4848.76,17.85,Yes
' JJ;NN;',13.44,45257.43,69.53,Yes
' JJ;NN',13.67,4848.76,17.85,Yes
' NNP;NNP;',13.7,1022188.72,324.06,Yes
' JJ;NN',13.83,9508.33,19.39,Yes
' NN;NN',13.86,3933.9,17.42,Yes
' JJ;NN',13.87,6216.64,18.36,Yes
' ;NN;NNS',13.94,4309.9,17.64,Yes
' JJ;NN',13.97,35773.92,38.08,Yes
' VBG;IN',14.04,18336.43,35.38,Yes
' VBP;DT;NN',14.08,4489.52,17.69,Yes
' VBD;RB',14.11,4617.82,17.78,Yes
' NN;NNS',14.17,5213.8,18.18,Yes
' JJ;NN',14.47,22041.37,35.86,Yes
' JJ;NN',14.5,17961.08,20.57,Yes
' NN;NN',14.52,5104.01,17.98,Yes
' JJ;NNS',14.55,6734.78,18.56,Yes
' JJ;NN',14.55,7460.17,18.9,Yes
' NNS;NN',14.62,67352.79,57.11,Yes
' NN;NN',14.68,6157.43,18.37,Yes
' JJ;NN',14.69,9698.52,19.43,Yes
' VBD;RB',14.72,79871.41,75.36,Yes
' NN;NNS',14.87,8015.13,18.89,Yes
' NN;NN',14.88,61229.35,56.47,Yes
' VBD;RB',14.9,8081.93,18.91,Yes
' JJ;NN',14.91,24247.8,21.2,Yes
' NN;NNS',14.91,55424.84,22.98,Yes
' VBG;NN',15.1,39676.86,38.28,Yes
' ;JJ;NN',15.13,13470.56,19.97,Yes
' NN;NN',15.33,12678.11,19.84,Yes
' JJ;NN',15.38,103920.44,42.54,Yes
' VBG;DT;NN',15.46,11546.05,19.78,Yes
' VBN;JJ;',15.5,17319.57,20.51,Yes
' VB;JJ;',15.55,11973.72,19.77,Yes
' JJ;NN;',15.55,337816.62,161.44,Yes
' NN;NN',15.55,17961.08,20.57,Yes
' NN;NN',15.57,13855.46,20.02,Yes
' JJ;NNS',15.67,101880.73,59.68,Yes
' VBG;NNS',15.69,16164.87,20.38,Yes
' NN;NN',15.72,14921.34,20.25,Yes
' VBD;DT;NN',15.72,13195.63,20.15,Yes
' NN;NN',15.81,18474.28,20.68,Yes
' JJ;NN;',16.11,649506.51,174.18,Yes
' NN;NNS',16.11,16164.87,20.41,Yes
' ;NN;NNS',16.24,48496.61,22.7,Yes
' NN;NN',16.24,80826.34,41.43,Yes
' NN;NN',16.3,88174.47,41.75,Yes
' JJ;NN',16.4,18474.28,20.64,Yes
' NN;NN',16.57,22043.37,21,Yes
' NNS;NNS',16.62,22043.37,21,Yes
' JJ;NN',16.64,38036.34,10000,Yes
' NN;IN;NN',16.72,53885.23,22.95,Yes
' NN;NNS',16.8,40413.67,22.35,Yes
' JJ;NN',16.89,60621.01,23.2,Yes
' JJ;NN',16.89,32330.74,21.84,Yes
' JJ;NN',16.91,113368.03,42.77,Yes
' NNS;NNS',17.11,35923.15,22.04,Yes
' ;JJ;NN',17.36,40413.67,22.64,Yes
' VBZ;NN',17.72,218236.23,46.14,Yes
' JJ;NNS',17.72,161657.69,25.41,Yes
' JJ;NN',17.84,77595.17,10000,Yes
' NN;NN',17.98,80828.34,23.88,Yes
' JJ;NN',18.05,229722.5,46.35,Yes
' NN;NNS',18.08,69281.29,23.49,Yes
' NN;NN',18.13,969951.13,10000,Yes
' NN;IN;NN',18.13,80828.34,23.88,Yes
' JJ;NN',18.19,44087.73,22.82,Yes
' NN;NNS',18.3,96994.21,24.45,Yes
' VBN;RB',18.36,80828.34,10000,Yes
' VBG;NN',18.36,121243.02,10000,Yes
' NN;NN',18.4,387977.85,49.09,Yes
' NN;NNS',18.43,484973.06,10000,Yes
' NNP;NNS',18.57,734807.22,10000,Yes
' JJ;JJ;NN;',18.57,215543.92,10000,Yes
' NN;NN',18.57,436475.46,48.96,Yes
' NN;NN',18.62,1636785.21,127.27,Yes
' JJ;NN',18.72,1796202.64,10000,Yes
' NN;NN',18.98,176353.93,10000,Yes
' JJ;NNS',19.08,161657.69,25.55,Yes
' JJ;NN',19.3,129325.95,24.91,Yes
' NN;NNS',19.3,161657.69,25.41,Yes
' JJ;NN;',19.3,161657.69,25.55,Yes
' ;NN;NNS',19.3,161657.69,25.55,Yes
' NN;NN',19.3,161657.69,25.41,Yes
' NN;NN',19.47,2020728.59,81.78,Yes
' NN;NNS',19.57,161657.69,25.55,Yes
' NN;NNS',19.72,323316.38,27.14,Yes
' VBN;NNS',19.72,2640418.23,10000,Yes
' NN;NN',20.08,1939903.25,10000,Yes
' NN;NN',20.3,484975.06,28.18,Yes
' ;JJ;NN',20.57,387979.85,10000,Yes
' JJ;NN',20.57,387979.85,10000,Yes
' NNP;NNP',20.89,484975.06,28.18,Yes
' NN;NNS',20.89,484975.06,10000,Yes
' NNP;NN',21.3,646633.75,10000,Yes
' VB;NN',21.89,1939903.25,10000,Yes
' NN;NNS',21.89,969951.13,10000,Yes
' VBZ;RB',7.71,48.99,8.63,Yes
' VBN;IN;',9.07,2930.47,65.55,Yes
' ;VBD;RB',9.76,7956.34,116.39,Yes
' ;VBD;RB;',10.04,10688.26,132.32,Yes
' ;IN;NN',10.39,368.51,12.64,Yes
' VBN;IN',10.4,4204.95,50.38,Yes
' ;IN;NN',10.61,423.12,13.49,Yes
' NNP;NN',11.23,139370.28,79.74,Yes
' VB;IN;',11.29,5537.58,41.56,Yes
' VBG;RB',11.34,625.99,13.7,Yes
' NN;NN',11.97,1282.01,15.15,Yes
' NN;NN',12,4880.68,29.64,Yes
' NN;NN',12.19,3848.02,17.43,Yes
' JJ;NN;',12.41,17250.68,61.8,Yes
' VB;JJ;',12.51,1495.84,15.45,Yes
' VBD;IN;',12.53,1648.58,15.65,Yes
' JJ;NNS',12.86,2098.46,16.18,Yes
' JJ;NN;',12.9,11675.35,33.23,Yes
' NNP;NNP',12.97,7606.47,18.77,Yes
' ;IN;NN',13.25,2565.01,16.55,Yes
' ;JJ;NN',13.26,2518.36,16.51,Yes
' NN;NN',13.27,4617.82,17.75,Yes
' NN;NN',13.39,121241.02,43.28,Yes
' VB;IN',13.43,13124.17,33.68,Yes
' NN;NN',13.55,3148.2,16.98,Yes
' ;NN;NN',13.6,3463.11,17.17,Yes
' NN;NN',13.6,4684.76,17.78,Yes
' ;NN;NN',13.72,3168.78,16.98,Yes
' ;JJ;NNS;',13.76,3148.2,16.96,Yes
' NN;NN',13.89,3729.59,17.37,Yes
' NNP;NNP',13.91,34433.17,37.75,Yes
' ;NN;NN',13.95,5387.62,18.1,Yes
' NN;NNS',13.97,3848.02,17.39,Yes
' ;NN;NN',14.11,29588.76,37.21,Yes
' JJ;NN;',14.13,21445.57,35.72,Yes
' JJ;NN;',14.14,8620.8,19.05,Yes
' NNS;NN',14.18,5104.01,17.95,Yes
' NN;NN',14.22,6486.97,18.45,Yes
' VBG;NN',14.23,22380.51,35.89,Yes
' NN;NN',14.26,14368.66,20.1,Yes
' JJ;NN',14.34,43804.94,54.29,Yes
' JJ;NN',14.43,32091,37.42,Yes
' ;JJ;NNS',14.44,5877.5,18.33,Yes
' VB;RB',14.46,5432.91,18.36,Yes
' JJ;NN',14.46,6157.43,18.45,Yes
' ;NN;NN',14.54,34501.23,37.69,Yes
' VBP;DT;NN',14.57,6177.04,18.85,Yes
' VBN;IN',14.64,53881.23,56.19,Yes
' JJ;NN',14.72,8015.13,18.89,Yes
' NN;NNS',14.73,14584.75,20.15,Yes
' NN;NN',14.78,7758.62,18.83,Yes
' NN;NN',14.83,65532.31,57.27,Yes
' NN;NNS',14.83,10102.67,19.42,Yes
' ;IN;NN;',14.95,8015.13,19.37,Yes
' VBZ;NN',14.98,9698.52,19.29,Yes
' JJ;NNS',14.98,8659.29,19.04,Yes
' JJ;NN;',15.01,97772.43,59.99,Yes
' ;NN;NN',15.04,10102.67,19.39,Yes
' VBN;RB',15.04,36675.86,38.83,Yes
' VBG;DT;NN',15.07,10776.25,19.59,Yes
' NN;NN',15.08,10102.67,19.39,Yes
' ;JJ;NNS',15.09,8980.04,19.18,Yes
' ;NN;NN',15.17,38795.09,38.21,Yes
' VBZ;JJ',15.17,10317.64,19.88,Yes
' NN;NNS',15.18,15395.07,20.26,Yes
' JJ;NN',15.24,11277.51,19.73,Yes
' NNP;NNP;',15.32,209036.41,66.48,Yes
' NNP;NN',15.35,17319.57,20.6,Yes
' JJ;NN;',15.5,26942.11,21.42,Yes
' NN;NN',15.52,16164.87,20.41,Yes
' JJ;NN',15.56,109718.09,60.26,Yes
' NN;NN',15.66,12678.11,19.84,Yes
' NN;NNS',15.68,13855.46,20.15,Yes
' NN;NNS',15.72,15395.07,20.46,Yes
' JJ;NN;',15.75,235925.3,101.97,Yes
' NN;NN',15.76,34640.15,21.96,Yes
' NN;NN',15.83,205740.42,82.51,Yes
' NN;NNS',15.84,15395.07,20.46,Yes
' JJ;NN',15.87,19793.94,20.78,Yes
' VBN;IN;',15.95,15643.39,10000,Yes
' NN;NN',15.98,32330.74,21.84,Yes
' JJ;NN',15.98,80826.34,41.31,Yes
' VBN;IN',16.04,16300.72,10000,Yes
' VBZ;NN',16.05,17015.7,20.49,Yes
' JJ;NN',16.08,186524.25,63.64,Yes
' NNS;NN',16.11,21553.49,21,Yes
' NNP;NNP;',16.17,342333.04,48.55,Yes
' NN;NNS',16.26,21553.49,20.95,Yes
' NNS;NN',16.32,20419.04,20.89,Yes
' ;NN;NN',16.38,21316.63,20.94,Yes
' ;NN;NN',16.38,872947.91,10000,Yes
' VB;NNP;',16.4,24869.57,21.27,Yes
' NN;NN',16.4,30310,21.75,Yes
' ;NNP;NN',16.43,60621.01,23.47,Yes
' JJ;NN',16.43,17634.49,20.59,Yes
' ;NN;NN',16.57,200398.33,64.18,Yes
' JJ;NN',16.62,34640.15,21.96,Yes
' VBG;NNS',16.64,26213.92,21.76,Yes
' ;NN;NN',16.67,247431.77,65.97,Yes
' NN;NN',16.72,22043.37,21.41,Yes
' NN;NNS',16.72,26942.11,21.6,Yes
' JJ;NN',16.72,181863.02,44.87,Yes
' JJ;NN',16.84,2980385.35,182.22,Yes
' JJ;NN',16.93,33445.63,22.26,Yes
' NN;NN',16.98,32330.74,22.19,Yes
' NN;NN',17.04,1678748.29,192.32,Yes
' ;JJ;NNS',17.05,153147.34,44.26,Yes
' NN;NN',17.05,34032.41,22.07,Yes
' ;NN;NN',17.08,39588.88,22.25,Yes
' JJ;NNS',17.11,48496.61,22.73,Yes
' NN;NN',17.24,42170.83,22.73,Yes
' NNS;NN',17.27,38797.09,10000,Yes
' NN;NN',17.27,69281.29,23.49,Yes
' ;VBZ;RB',17.3,48496.61,23.02,Yes
' VBN;NN',17.3,32330.74,21.84,Yes
' ;NN;NN',17.36,80828.34,24.07,Yes
' JJ;NN',17.36,1401563.82,209.41,Yes
' NNP;NNP',17.36,138563.59,10000,Yes
' NNS;NN',17.43,49740.13,22.86,Yes
' VBD;DT;NN',17.43,48496.61,23.02,Yes
' NN;NN',17.57,53885.23,22.95,Yes
' JJ;NN',17.62,727455.09,118.13,Yes
' ;NNS;NN',17.64,53885.23,23.23,Yes
' NN;NN',17.69,678959.49,94.25,Yes
' NN;NN',17.72,88176.47,24.25,Yes
' JJ;NN;',17.72,40413.67,22.43,Yes
' NN;NNS',17.72,80828.34,24.07,Yes
' JJ;NN',17.72,53885.23,22.95,Yes
' NN;NN',17.76,51049.11,10000,Yes
' NN;NN',17.76,60621.01,23.2,Yes
' NN;NN',17.76,51049.11,10000,Yes
' NN;NN',17.84,77595.17,10000,Yes
' NN;NNS',17.84,107771.46,24.68,Yes
' JJ;NN',18.08,363729.05,48.05,Yes
' ;NNP;IN;NN',18.08,3503935.05,235.58,Yes
' JJ;NN',18.13,80828.34,23.88,Yes
' JJ;NNS',18.19,335749.66,47.98,Yes
' NN;NN',18.3,92375.39,24.17,Yes
' NN;NN',18.3,80828.34,23.82,Yes
' NN;NNS',18.3,96994.21,24.23,Yes
' VBG;NNS',18.3,107771.46,24.5,Yes
' NN;NNS',18.43,96994.21,24.45,Yes
' VBN;NN;',18.47,449046.91,10000,Yes
' VBN;NN;',18.47,449046.91,10000,Yes
' JJ;NNS',18.57,88176.47,10000,Yes
' JJ;NN;',18.57,96994.21,24.23,Yes
' ;NN;NN',18.57,436475.46,48.96,Yes
' NN;NNS',18.64,96994.21,10000,Yes
' ;NN;NN',18.72,1796202.64,10000,Yes
' JJ;NN;',18.73,2398218.28,200.12,Yes
' NN;NN;NN',18.84,581968.28,10000,Yes
' VBN;NNS',18.89,107771.46,24.68,Yes
' ;IN;NNS',18.89,161657.69,25.41,Yes
' VBD;DT;NN',18.89,107771.46,24.68,Yes
' NN;NNS',18.89,121243.02,24.93,Yes
' NN;NN',18.98,872953.91,52.41,Yes
' NN;NNS',18.98,64662.48,23.61,Yes
' NN;NN',19.3,323316.38,27.14,Yes
' JJ;NNS',19.3,215543.92,26.09,Yes
' NN;NN',19.3,161657.69,25.55,Yes
' JJ;NNS',19.3,161657.69,25.55,Yes
' NN;NN',19.43,80828.34,24.07,Yes
' JJ;NNS',19.89,193989.43,25.95,Yes
' NNP;NNS;',19.89,323316.38,27.14,Yes
' NN;NN',19.89,969951.13,10000,Yes
' NN;NN',19.89,242487.03,26.46,Yes
' NN;NN;NN',20.08,277128.18,10000,Yes
' NN;NN',20.08,277128.18,10000,Yes
' NN;NN',20.3,277128.18,10000,Yes
' NN;NNS',20.3,1091193.14,10000,Yes
' NN;NN',20.89,387979.85,10000,Yes
' NN;NN',20.89,484975.06,10000,Yes
' NN;NNS',21.3,646633.75,10000,Yes
' NN;NN',21.3,969951.13,10000,Yes
' NN;NNS',21.3,646633.75,10000,Yes
' NNP;NNS',21.89,969951.13,10000,Yes
' NN;NN',21.89,969951.13,10000,Yes
' ;NN;NN;NN',21.89,1939903.25,10000,Yes
' NN;NN;NN',21.89,969951.13,10000,Yes
' NN;NN',21.89,969951.13,10000,Yes
' VBG;NN',21.89,646633.75,10000,Yes
' JJ;NN',21.89,969951.13,10000,Yes
' NN;NN;NN',22.89,1939903.25,10000,Yes
' ;NNS;IN;JJ;NNS;',22.89,1939903.25,10000,Yes
' NNS;IN;NN',22.89,1939903.25,10000,Yes
' VBN;IN;NN;',22.89,1939903.25,10000,Yes
' ;VBN;IN',9.93,6856.95,95.09,Yes
' VBN;JJ',11.55,957.45,14.56,Yes
' VBG;IN',11.98,1230.69,15.13,Yes
' ;NN;NN',12.42,1970.45,16.01,Yes
' JJ;NN;',12.46,12206.19,33.42,Yes
' NNP;NNP',12.62,4468.83,17.75,Yes
' ;IN;NN',12.63,1582.6,15.66,Yes
' VBN;IN;',12.63,7671.35,31.66,Yes
' ;NN;NN',12.71,2252.08,16.29,Yes
' JJ;NN',13,3153.32,16.98,Yes
' NN;NN',13.04,2606.4,16.65,Yes
' ;VBG;IN',13.14,1954.55,16.07,Yes
' JJ;NN;',13.18,3184.39,16.99,Yes
' VBD;JJ;',13.33,2660.05,16.62,Yes
' VBZ;NN',13.35,3232.17,17.02,Yes
' NN;NN',13.39,21820.92,35.8,Yes
' VBN;NNS;',13.41,3030.1,16.9,Yes
' NN;NNS',13.53,2294.74,16.34,Yes
' ;NN;NN',13.61,8360.66,19,Yes
' VBN;IN',13.62,3127.88,17.09,Yes
' JJ;NN',13.65,3673.06,17.31,Yes
' NN;NN',13.67,3366.89,17.11,Yes
' NN;NN',13.67,3168.78,16.98,Yes
' ;NN;NN',13.7,484514.95,293.27,Yes
' NNS;NN',13.79,5877.5,18.25,Yes
' NN;NN',13.88,32070.14,52.33,Yes
' NN;NN',13.89,7131,18.81,Yes
' NN;NN',14.11,5387.62,18.11,Yes
' NN;NNS',14.17,5213.8,18.18,Yes
' NN;NN',14.21,4639.92,17.78,Yes
' JJ;NN;',14.26,7053.2,18.63,Yes
' NN;NN',14.36,5387.62,18.24,Yes
' ;NN;NN',14.43,6927.23,18.58,Yes
' ;NNP;NN',14.46,47313.74,10000,Yes
' NN;NN',14.47,7460.17,18.74,Yes
' NN;NNS',14.52,7183.83,18.73,Yes
' VBD;RB',14.59,6157.43,18.45,Yes
' JJ;NN',14.73,9947.23,19.33,Yes
' NN;NN',14.81,13855.46,20.02,Yes
' ;JJ;NN',14.91,7982.15,18.9,Yes
' JJ;NNS',14.96,9947.23,19.58,Yes
' NN;NNS',14.98,355638.11,125.07,Yes
' NN;NNS',15.05,8776.85,19.07,Yes
' NN;NN',15.11,15395.07,20.28,Yes
' NN;NN',15.13,16164.87,20.46,Yes
' JJ;NNS',15.13,9325.46,19.2,Yes
' NNP;NN',15.26,86597.87,58.62,Yes
' ;VBP;NN;',15.3,72743.41,41.33,Yes
' JJ;NN',15.3,13470.56,19.96,Yes
' VBN;IN',15.31,81503.58,59.86,Yes
' JJ;NN',15.32,24247.8,21.24,Yes
' NN;NN',15.32,14584.75,20.15,Yes
' JJ;NN',15.36,49880.25,39.26,Yes
' ;JJ;NNS',15.38,9508.33,19.24,Yes
' NN;NN',15.6,16164.87,20.41,Yes
' VB;NNS',15.72,13470.56,20.09,Yes
' NN;NN',15.8,32330.74,21.84,Yes
' JJ;NNS',15.89,24247.8,21.2,Yes
' JJ;NN',15.89,18474.28,20.64,Yes
' NN;NNS;',15.91,91887.2,41.89,Yes
' NN;NN',15.93,15154.5,20.65,Yes
' ;VBZ;IN',15.95,15643.39,10000,Yes
' ;NN;NN',15.98,131069.61,61.55,Yes
' NN;NNS',15.98,23093.1,21.12,Yes
' NN;NN',15.99,14263,20.09,Yes
' VBN;IN',16.04,16300.72,10000,Yes
' NN;NN',16.11,24247.8,21.2,Yes
' NN;NNS',16.19,23093.1,21.1,Yes
' JJ;NN',16.26,311767.33,47.31,Yes
' VBN;NNS',16.4,21553.49,21.14,Yes
' JJ;NN;',16.4,43107.98,22.45,Yes
' NN;NN',16.44,116391.26,43.26,Yes
' ;NN;NN',16.5,433009.34,69.46,Yes
' JJ;NN',16.52,336783.93,67.7,Yes
' NN;NN',16.57,200398.33,64.18,Yes
' NN;NNS',16.57,29391.49,21.77,Yes
' NNS;NN',16.62,269426.15,66.09,Yes
' NNP;NNP',16.66,754400.21,94.71,Yes
' VB;NNS',16.72,26942.11,21.44,Yes
' NN;NN',16.8,30310,21.75,Yes
' NN;NNS',16.81,121241.02,43.09,Yes
' NN;NNS',16.87,24869.57,21.27,Yes
' ;NN;NN',16.98,666831.09,133.92,Yes
' JJ;NN',16.98,29391.49,21.62,Yes
' JJ;NN;',17.13,80828.34,10000,Yes
' NN;NN',17.19,351426.93,68.47,Yes
' NN;NNS',17.24,46187.2,22.58,Yes
' NN;NN',17.26,633695.06,94.2,Yes
' NN;NNS',17.3,69281.29,23.49,Yes
' VBN;RB',17.36,40413.67,22.64,Yes
' ;JJ;NN',17.4,49740.13,22.86,Yes
' NN;NN',17.46,47313.74,10000,Yes
' NN;NN',17.5,39588.88,22.25,Yes
' NN;NN',17.6,49740.13,22.86,Yes
' JJ;NN',17.6,49740.13,22.86,Yes
' VBG;NN',17.64,51049.11,23.12,Yes
' NN;NN',17.64,242485.03,46.58,Yes
' NN;NNS',17.72,35923.15,22.19,Yes
' JJ;NN',17.75,1785584.68,126.81,Yes
' JJ;NN',17.76,4151441.91,544.15,Yes
' NN;NN',17.8,88176.47,10000,Yes
' JJ;NNS',17.84,53885.23,23.03,Yes
' NN;NNS',17.89,80828.34,23.82,Yes
' JJ;NN',17.98,77595.17,23.72,Yes
' NN;NNS',18.13,71847.31,23.63,Yes
' NN;NN',18.24,80828.34,23.82,Yes
' VB;DT;NN',18.3,84342.66,10000,Yes
' NN;NN',18.3,1707506.89,173.86,Yes
' NN;NNS',18.43,88176.47,24.25,Yes
' JJ;NN',18.43,323316.38,27.14,Yes
' NN;IN;DT;NN',18.47,1347150.73,10000,Yes
' JJ;NN;',18.57,215543.92,10000,Yes
' JJ;NN',18.57,129325.95,24.91,Yes
' NN;NN',18.57,107771.46,24.68,Yes
' ;NN;NN;',18.8,513501.07,10000,Yes
' JJ;NN',18.89,96994.21,24.23,Yes
' JJ;NN',18.89,149222.4,10000,Yes
' NNP;NNS',18.94,2856940.9,10000,Yes
' JJ;NN',18.98,129325.95,24.91,Yes
' NN;NN',18.98,129325.95,10000,Yes
' NN;NN',19.19,161657.69,10000,Yes
' NN;NN;',19.3,831384.54,52.49,Yes
' NN;NN',19.3,161657.69,25.55,Yes
' NN;NN',19.57,161657.69,25.55,Yes
' NN;NNS',19.57,193989.43,10000,Yes
' NN;NN',19.57,323316.38,27.14,Yes
' NN;NN;NN',19.72,215543.92,10000,Yes
' VBG;NN',19.83,1616581.88,79.55,Yes
' NN;NNS',20.08,277128.18,10000,Yes
' VBN;PRP$;NN',20.3,323316.38,10000,Yes
' NN;NN;NN',20.57,1939903.25,10000,Yes
' NN;NNS',20.57,323316.38,10000,Yes
' NN;NN',21.89,1939903.25,10000,Yes
' NN;NN',21.89,969951.13,10000,Yes
' JJ;NN',21.89,1939903.25,10000,Yes
' VB;IN;NN',21.89,969951.13,10000,Yes
' ;NN;NN',21.89,969951.13,10000,Yes
' JJ;NN;',22.89,4364781.56,10000,Yes
' NN;NNS;',22.89,1939903.25,10000,Yes
' NNP;NN',22.89,1939903.25,10000,Yes
' NN;NNS',22.89,4364781.56,10000,Yes
' JJ;NN;',22.89,1939903.25,10000,Yes
' VB;DT;JJ;NN',22.89,1939903.25,10000,Yes
' ;IN;NNP',8.55,4111.9,70.92,Yes
' VBZ;IN;',8.71,507.51,20.76,Yes
' ;IN;NN',9.01,576.25,21.46,Yes
' ;IN;NN',9.28,6530.94,124.12,Yes
' VB;IN',10.24,710.11,13.96,Yes
' VBN;IN',10.65,3695.98,39.44,Yes
' VB;IN',10.7,410.7,12.85,Yes
' VBD;IN',10.74,2168.54,26.7,Yes
' ;IN;NN',11.03,1905.52,26.98,Yes
' VBG;IN',11.09,4635.03,41.02,Yes
' ;NN;NN',11.72,944.37,14.53,Yes
' ;VBN;NN',12.02,978.75,14.59,Yes
' VBZ;IN',12.32,1292.27,15.18,Yes
' VB;RB',12.34,1252.98,15.13,Yes
' JJ;NN;',12.36,1346.16,15.24,Yes
' ;IN;NN',12.44,1230.69,15.13,Yes
' VBD;IN',12.52,6665.88,30.97,Yes
' VBD;NN',12.54,1576.16,15.56,Yes
' JJ;NN;',12.58,1923.51,15.97,Yes
' ;NN;NN',12.66,1958.5,16.04,Yes
' JJ;NN',12.76,1782,15.82,Yes
' VBD;RB',12.87,8147.86,31.82,Yes
' NN;NN',12.9,2835.12,16.75,Yes
' JJ;NN;',12.93,11544.05,33.16,Yes
' JJ;NNS',12.93,2026.07,16.07,Yes
' VBD;RB',13.36,21723.32,50.12,Yes
' VBD;JJ',13.37,2947.18,16.91,Yes
' NN;NN',13.65,3591.42,17.25,Yes
' NN;NN',13.66,53787.74,71.27,Yes
' NN;NN',13.66,10102.67,19.42,Yes
' ;NN;NN',13.7,484514.95,293.27,Yes
' NN;NNS',13.81,3420.35,17.13,Yes
' VBN;NNS',13.83,3673.06,17.38,Yes
' NN;NN',13.84,3513.32,17.21,Yes
' VBD;NN',13.91,48293.46,70.07,Yes
' JJ;NN',13.94,4617.82,17.76,Yes
' NN;NN',14.02,4897.75,17.87,Yes
' NN;NN',14.04,4197.93,17.55,Yes
' JJ;NN',14.29,7884.79,18.92,Yes
' JJ;NN;',14.29,84470.7,91.1,Yes
' NN;NN',14.3,5387.62,18.11,Yes
' ;NN;NN',14.52,5432.91,18.14,Yes
' VBG;NN',14.54,5986.36,18.29,Yes
' JJ;NN',14.66,31740.89,37.34,Yes
' VBD;IN',14.72,135201.22,113.7,Yes
' NN;NNS;',14.78,8433.37,19,Yes
' VBG;IN',14.98,7697.03,18.87,Yes
' JJ;NN',14.99,14263,20.21,Yes
' ;NN;NN',15.02,16164.87,20.56,Yes
' NN;NN',15.09,86597.87,58.62,Yes
' ;NN;NN',15.11,10776.25,19.64,Yes
' NN;NNS',15.19,47961.67,39.36,Yes
' NN;NN',15.22,8776.85,19.07,Yes
' NN;NN',15.3,9325.46,19.22,Yes
' NN;NN',15.3,138561.59,43.67,Yes
' NN;NN',15.36,11973.72,20.18,Yes
' JJ;NN',15.38,12595.78,19.82,Yes
' JJ;NN;',15.52,12199.66,19.99,Yes
' JJ;NN',15.55,337816.62,161.44,Yes
' JJ;NN',15.55,182791.67,82.68,Yes
' NN;NN',15.6,29391.49,21.77,Yes
' NNP;NN',15.67,279427.59,121.75,Yes
' NN;NN',15.72,73354.72,40.89,Yes
' NN;NN',15.73,76572.17,41.08,Yes
' NN;NN',15.78,242487.03,26.46,Yes
' JJ;NN',15.81,26942.11,21.6,Yes
' JJ;NN',15.88,15770.58,20.51,Yes
' NN;NN',15.9,713185.09,174.73,Yes
' VBD;JJ;',15.91,16300.72,20.38,Yes
' VBN;IN',15.95,15643.39,10000,Yes
' VB;RB',15.95,130364.91,10000,Yes
' JJ;NN',15.98,551104.16,72.57,Yes
' VBG;IN',16.04,16300.72,10000,Yes
' NN;NN',16.05,27711.92,21.87,Yes
' JJ;NN',16.05,35923.15,22.04,Yes
' NN;NN',16.11,21553.49,21.37,Yes
' VBN;NN',16.17,19398.04,10000,Yes
' NN;NN',16.18,83533.55,41.47,Yes
' NN;NN',16.19,24247.8,21.2,Yes
' JJ;NN',16.36,20858.19,10000,Yes
' NN;NN',16.36,26942.11,21.51,Yes
' VBD;DT;NN',16.4,21553.49,21,Yes
' NNP;IN;NN',16.55,223832.11,46.76,Yes
' JJ;NN;',16.6,32330.74,21.84,Yes
' NN;NN',16.6,29391.49,21.77,Yes
' NN;NN',16.62,22043.37,21,Yes
' NNP;NNP;',16.66,864132.17,95.94,Yes
' JJ;NN',16.72,32330.74,21.97,Yes
' NN;NN',16.72,53885.23,22.95,Yes
' NN;NN',16.78,34032.41,22.07,Yes
' NN;NN',16.78,64662.48,23.61,Yes
' JJ;NN',16.91,46187.2,22.58,Yes
' NN;NNS',16.98,32330.74,22.19,Yes
' NN;NNS',16.98,60621.01,23.2,Yes
' NN;NN',17.13,35923.15,22.4,Yes
' NN;NNS',17.13,46187.2,22.92,Yes
' NN;NN',17.22,57055.01,23.35,Yes
' NNS;NN',17.24,48496.61,22.73,Yes
' JJ;NN',17.4,40413.67,22.29,Yes
' NN;NNS',17.43,40413.67,22.64,Yes
' NN;NN',17.64,53885.23,23.23,Yes
' NN;NNS',17.69,538857.29,71.64,Yes
' NN;NN',17.72,51049.11,23.12,Yes
' ;JJ;NN',17.72,57055.01,23.35,Yes
' NN;NNS',17.76,205398.63,45.64,Yes
' JJ;NNS',18.13,60621.01,23.2,Yes
' NN;NN',18.3,74610.7,23.91,Yes
' NN;NN',18.3,71847.31,23.63,Yes
' NNP;NN',18.3,363729.05,48.33,Yes
' NN;NN',18.36,51049.11,23.12,Yes
' NN;NN',18.43,1320205.61,100.37,Yes
' NN;NN',18.57,96994.21,24.23,Yes
' NN;NN',18.57,436475.46,49.13,Yes
' NN;NNS',18.57,161657.69,25.55,Yes
' JJ;NNS',18.57,734807.22,10000,Yes
' NN;NNS',18.57,323316.38,27.14,Yes
' ;VB;NNS',18.8,80828.34,24.07,Yes
' NNP;NN',18.89,323316.38,10000,Yes
' NN;NN',18.9,2173400.24,10000,Yes
' NN;NNS',18.94,1785584.68,126.81,Yes
' VBZ;DT;NN;',18.98,121243.02,10000,Yes
' NN;NN',19.19,161657.69,10000,Yes
' NN;NNS',19.3,161657.69,25.41,Yes
' JJ;NNS',19.3,161657.69,25.41,Yes
' NN;NN',19.3,107771.46,24.5,Yes
' JJ;NN',19.3,138563.59,25.21,Yes
' NN;NN',19.72,969949.13,10000,Yes
' NN;NNS',19.72,121243.02,24.93,Yes
' NN;NN',19.72,193989.43,10000,Yes
' JJ;NN',19.72,215543.92,26.09,Yes
' NNP;NN',19.89,387979.85,10000,Yes
' JJ;NN',20.08,646633.75,10000,Yes
' VBG;NN',20.3,323316.38,27.14,Yes
' NNS;NNS',20.3,387979.85,10000,Yes
' VBZ;IN;NN',20.3,242487.03,26.46,Yes
' NNS;NNS',20.3,277128.18,10000,Yes
' NN;NNS',20.57,484975.06,28.18,Yes
' ;NN;NN;',20.72,1939901.25,57.05,Yes
' NN;NNS',20.89,387979.85,10000,Yes
' NN;IN;NN',20.89,484975.06,10000,Yes
' NN;NN',20.89,646633.75,10000,Yes
' NNP;NN',20.89,646633.75,10000,Yes
' JJ;NN',20.89,387979.85,10000,Yes
' NN;NNS',21.3,4364781.56,10000,Yes
' NN;NN',21.3,5388617.92,10000,Yes
' NN;IN;DT;NN',21.89,4364781.56,10000,Yes
' ;JJ;NN',21.89,969951.13,10000,Yes
' JJ;JJ;NN',21.89,484975.06,28.18,Yes
' VBN;DT;JJ;NN',22.89,1939903.25,10000,Yes
' VB;IN',8.74,516.62,20.64,Yes
' VBN;IN;',9.3,159.38,10.99,Yes
' VB;RB',9.93,234.66,11.74,Yes
' ;IN;NN',10.44,3023.07,38.14,Yes
' VBG;IN',11.33,6697.27,43.6,Yes
' ;NN;NN',11.35,797.31,14.18,Yes
' NNP;NN',11.41,743.97,14.05,Yes
' VBD;IN',11.62,803.27,14.53,Yes
' VB;RB',11.84,922.76,14.47,Yes
' ;NN;NNS;',12.04,2053.98,16.11,Yes
' JJ;NN',12.05,1900.87,15.94,Yes
' VBD;IN',12.27,1236.18,15.07,Yes
' NN;NN',12.6,3078.21,16.93,Yes
' NN;NN',12.6,1532.52,15.51,Yes
' JJ;NN',12.66,1603.55,15.62,Yes
' NN;NN',12.87,7347.12,18.71,Yes
' JJ;NN;',12.94,12021.2,33.49,Yes
' VBN;IN',12.98,11047.09,33.03,Yes
' JJ;NN;',13.02,4309.9,17.65,Yes
' VBG;IN',13.04,2036.71,16.15,Yes
' VBD;RB',13.1,9894.47,32.54,Yes
' JJ;NN',13.13,2164.07,16.22,Yes
' NN;NN',13.14,5913.34,18.3,Yes
' VBN;IN;',13.31,2663.7,10000,Yes
' JJ;NN;',13.44,45257.43,69.53,Yes
' VBN;IN',13.46,12223.29,33.56,Yes
' VB;JJ',13.55,3168.78,16.98,Yes
' NN;NN',13.62,3390.44,17.13,Yes
' NNP;NN',13.69,3011.27,16.87,Yes
' NN;NN',13.87,3918,17.45,Yes
' VBN;NN;',14.15,22380.51,35.95,Yes
' NN;NNS',14.18,7053.2,18.63,Yes
' NN;NNS',14.26,6216.64,18.36,Yes
' VB;RB',14.36,5213.8,18.28,Yes
' NN;NN',14.36,5541.58,18.13,Yes
' NN;NN',14.4,20206.34,20.84,Yes
' JJ;NN',14.43,7949.43,19.02,Yes
' VBN;IN',14.46,5432.91,18.36,Yes
' VBN;IN',14.46,4074.43,17.68,Yes
' VBG;NN',14.66,7982.15,18.9,Yes
' ;NN;NN',14.73,9796.5,19.31,Yes
' JJ;NN',14.9,49596.82,39.29,Yes
' JJ;NN;',15.01,97772.43,59.99,Yes
' ;NNP;NN',15.09,577347.46,10000,Yes
' VBD;NNP',15.13,16164.87,20.56,Yes
' NN;NN',15.13,10263.04,19.41,Yes
' NN;NN',15.13,45463.51,39.25,Yes
' VBD;DT;NN',15.14,9236.64,19.27,Yes
' ;JJ;NN',15.18,9796.5,19.3,Yes
' ;NN;NN',15.22,11410.2,19.62,Yes
' NNS;NN',15.25,61257.13,40.12,Yes
' NN;NN',15.27,11546.05,19.67,Yes
' JJ;NN',15.3,25192.56,21.29,Yes
' VBN;JJ;',15.41,11021.18,20.01,Yes
' NN;NNS',15.43,46185.2,39.07,Yes
' NN;NN',15.46,88174.47,41.7,Yes
' NN;NN',15.5,225689.4,120.31,Yes
' NN;NNS',15.62,17961.08,20.57,Yes
' NN;NN',15.68,11084.17,19.64,Yes
' NN;NN',15.76,12761.53,19.98,Yes
' NN;NN',15.89,16164.87,20.35,Yes
' NNP;NNP',15.9,1983977.98,196.75,Yes
' VBG;IN',16.04,73354.72,10000,Yes
' VB;NN',16.05,17015.7,20.66,Yes
' JJ;NN',16.09,80828.34,10000,Yes
' JJ;NN;',16.11,649506.51,174.18,Yes
' JJ;NNS;',16.11,138561.59,43.75,Yes
' VBN;NN;',16.11,17634.49,20.53,Yes
' NN;NN',16.13,16164.87,20.34,Yes
' JJ;NN;',16.13,23093.1,21.19,Yes
' JJ;NNS',16.13,19398.04,21.15,Yes
' NN;NN',16.17,19017.67,20.72,Yes
' JJ;NN',16.27,19398.04,21.15,Yes
' VBZ;DT;NN',16.3,38036.34,22.3,Yes
' NN;NN',16.36,2410603.31,179.8,Yes
' NN;NNS',16.38,22043.37,21,Yes
' ;NN;NN',16.4,411793.24,129.05,Yes
' JJ;NN',16.5,37304.85,22.18,Yes
' NNS;NN',16.5,32330.74,21.88,Yes
' NN;NNS',16.57,34640.15,21.96,Yes
' NN;NN',16.57,34640.15,22.03,Yes
' ;VBG;NN',16.72,26942.11,21.42,Yes
' JJ;NN',16.72,23948.44,21.17,Yes
' NN;NNS;',16.76,43107.98,22.45,Yes
' ;NN;NNS',16.84,237728.36,65.26,Yes
' JJ;NN',16.84,64662.48,23.61,Yes
' NN;NNS',16.89,38036.34,22.3,Yes
' NN;NN',16.89,30310,21.67,Yes
' NN;NN',16.91,29391.49,21.77,Yes
' ;NN;NNS',16.92,218236.23,45.9,Yes
' NN;NNS',16.98,29391.49,21.77,Yes
' NN;NN',16.98,32330.74,21.88,Yes
' NN;NN',17.11,46187.2,22.58,Yes
' NNP;NNP;',17.15,2835225.67,250.9,Yes
' JJ;NN;',17.24,57055.01,23.35,Yes
' NN;NN',17.24,35923.15,22.4,Yes
' ;NN;NNS',17.27,22556.03,21.46,Yes
' NN;NN',17.3,40413.67,22.43,Yes
' JJ;NNS',17.31,931450.96,139.11,Yes
' JJ;NNS',17.33,475269.54,90.35,Yes
' ;JJ;NN',17.36,30310,22.06,Yes
' NN;NN',17.5,74610.7,23.91,Yes
' VBG;NN',17.55,277126.18,47.66,Yes
' ;JJ;NN',17.57,48496.61,22.73,Yes
' VBN;IN',17.57,46187.2,10000,Yes
' NN;NN',17.57,48496.61,22.73,Yes
' VBG;NNS',17.57,32330.74,21.97,Yes
' VBD;RB',17.57,46187.2,10000,Yes
' JJ;NN',17.64,107771.46,24.68,Yes
' NN;NN',17.72,80828.34,23.88,Yes
' JJ;NN;',17.76,4151441.91,544.15,Yes
' NN;NN',17.8,256749.03,46.82,Yes
' JJ;NN;',17.89,489869.81,70.25,Yes
' NN;NNS',17.89,80828.34,23.82,Yes
' ;NN;NN',17.89,60621.01,23.2,Yes
' NN;NN',17.89,80828.34,24.07,Yes
' NN;NN',17.98,62576.56,10000,Yes
' ;NN;NN',17.98,69281.29,23.75,Yes
' NNP;NNP',18.13,2640404.23,274.88,Yes
' JJ;NNS',18.15,551104.16,72.57,Yes
' NN;NN',18.19,88176.47,10000,Yes
' NN;NNS',18.24,129325.95,24.91,Yes
' VBG;NNS',18.24,960147.63,97.04,Yes
' ;NNS;NN',18.43,74610.7,23.91,Yes
' NN;NN',18.43,311767.33,47.66,Yes
' JJ;NN',18.5,69281.29,23.49,Yes
' JJ;NN',18.57,121243.02,24.93,Yes
' NN;NNS',18.57,96994.21,24.45,Yes
' NN;NNS',18.57,96994.21,24.45,Yes
' ;NN;NN',18.72,1796202.64,10000,Yes
' VBP;NNS',18.72,107771.46,24.5,Yes
' ;NN;NN',18.89,161657.69,25.41,Yes
' JJ;NN',18.89,323316.38,10000,Yes
' NN;NNS',18.98,129325.95,24.91,Yes
' NN;NN',19.3,215543.92,26.09,Yes
' NNP;NNP;',19.3,242487.03,10000,Yes
' NNP;NN;NNS',19.4,2640418.23,10000,Yes
' NN;NNS',19.43,176353.93,10000,Yes
' NN;NNS',19.57,193989.43,25.95,Yes
' JJ;NN',19.57,193989.43,10000,Yes
' JJ;NN',19.89,193989.43,10000,Yes
' VBN;NN',20.3,323316.38,27.14,Yes
' ;JJ;NNS',20.3,323316.38,27.14,Yes
' NN;NNS',20.57,161657.69,25.55,Yes
' NN;NNS',20.57,323316.38,10000,Yes
' NN;NN',20.57,242487.03,26.46,Yes
' NNS;IN;NN',20.89,969951.13,10000,Yes
' VBG;NNS',20.89,387979.85,10000,Yes
' JJ;NN',20.89,484975.06,28.18,Yes
' JJ;NNS',20.89,387979.85,10000,Yes
' NN;NNS',21.3,484975.06,10000,Yes
' VBG;NN',21.3,484975.06,10000,Yes
' NNP;CC;NNP',22.89,4364781.56,10000,Yes
' ;JJ;NN;',22.89,1939903.25,10000,Yes
' ;NN;NN;NN',22.89,1939903.25,10000,Yes
' NN;NNS',22.89,1939903.25,10000,Yes
' JJ;NNS',22.89,1939903.25,10000,Yes
' NN;NN;NN;NN',22.89,1939903.25,10000,Yes
' ;JJ;JJ;JJ;NNS',22.89,1939903.25,10000,Yes
' VB;JJ;JJ;JJ;',22.89,1939903.25,10000,Yes
' VBZ;IN',7.71,55.73,8.93,Yes
' VBN;IN',10.62,400.14,12.8,Yes
' VBD;RB',11.65,3575.43,28.39,Yes
' VBN;JJ;',11.83,917.52,14.47,Yes
' ;VBG;IN',12.04,1041.96,14.75,Yes
' VBN;IN;',12.27,1230.69,15.13,Yes
' JJ;NN',12.38,13757.19,20.23,Yes
' JJ;NN',12.52,2019.73,16.07,Yes
' JJ;NN',13.21,2627.6,16.6,Yes
' VBG;NN',13.23,2571.82,16.55,Yes
' JJ;NN',13.29,2907.4,16.8,Yes
' JJ;NNS;',13.4,4040.47,17.47,Yes
' ;JJ;NN',13.51,3673.06,17.28,Yes
' JJ;NN',13.51,3275.87,17.05,Yes
' VBD;IN',13.6,14668.54,34.25,Yes
' NN;NN',13.61,6338.56,18.48,Yes
' VBG;RB',13.72,14668.54,34.37,Yes
' NN;NN',13.77,3494.32,17.19,Yes
' ;NNS;NNS',13.78,4639.92,17.76,Yes
' NN;NN',13.81,3591.42,17.27,Yes
' VBD;NN',13.91,17740.03,34.93,Yes
' JJ;NNS',13.96,4262.53,17.65,Yes
' JJ;NN',14.17,13470.56,20.09,Yes
' JJ;NN',14.19,5158.32,18.02,Yes
' VBZ;JJ;',14.26,4897.75,17.89,Yes
' JJ;NN',14.29,84470.7,91.1,Yes
' NN;NNS',14.32,5131.02,17.96,Yes
' VBG;IN',14.36,6157.43,18.37,Yes
' NN;NN',14.36,6157.43,18.37,Yes
' NN;NNS',14.4,7291.87,18.69,Yes
' NN;NN',14.5,7606.47,19.04,Yes
' JJ;NN',14.55,14921.34,20.62,Yes
' NN;NN',14.57,8218.93,19.09,Yes
' NN;NN',14.62,5877.5,18.25,Yes
' VBD;IN',14.72,135201.22,113.7,Yes
' ;NN;NNS',14.78,6380.26,18.58,Yes
' NNP;NNP',14.78,69281.29,23.75,Yes
' JJ;NN',14.84,8816.75,19.09,Yes
' NN;NNS',14.9,25192.56,21.29,Yes
' JJ;NN',14.91,11021.18,19.56,Yes
' JJ;NN;',14.96,9947.23,19.58,Yes
' NN;NNS',15.11,7606.47,18.88,Yes
' NN;NN',15.17,38795.09,38.21,Yes
' NN;NN',15.17,9508.33,10000,Yes
' NNP;NN',15.24,14263,20.09,Yes
' ;JJ;NNS',15.3,10102.67,19.39,Yes
' NN;NN',15.32,10209.02,19.39,Yes
' JJ;NNS',15.37,168389.47,62.93,Yes
' VBZ;NN',15.47,11343.47,19.61,Yes
' JJ;NN',15.49,15395.07,20.25,Yes
' VBZ;RB',15.57,11546.05,19.78,Yes
' VBN;DT;NN',15.72,21553.49,20.97,Yes
' VBN;NNS',15.72,13470.56,20.01,Yes
' NN;NN',15.73,60619.01,40.07,Yes
' NNP;NN',15.76,32330.74,21.88,Yes
' VB;RB',15.84,69833.55,41.16,Yes
' VBG;NN',15.89,14263,20.09,Yes
' ;JJ;NNS',15.98,121241.02,43.09,Yes
' NN;NNS',16.01,146957.44,62.27,Yes
' VBG;IN',16.04,16300.72,10000,Yes
' JJ;NNS;',16.11,138561.59,43.75,Yes
' VBN;RB',16.17,87292.69,42.07,Yes
' JJ;NNS',16.26,129323.95,43.37,Yes
' JJ;NNS',16.3,25192.56,21.29,Yes
' NN;NN',16.6,30791.13,21.71,Yes
' ;JJ;NN',16.62,29391.49,21.62,Yes
' NN;NN',16.64,30310,22.06,Yes
' NN;NN',16.72,22043.37,21.41,Yes
' ;NN;NNS',16.76,22821.4,21.12,Yes
' NN;NN',16.8,80828.34,23.88,Yes
' JJ;NN',16.83,114859.75,42.9,Yes
' NN;NN',16.89,30310,21.67,Yes
' JJ;NN',16.93,53885.23,23.23,Yes
' VBN;NN',16.98,32330.74,21.82,Yes
' JJ;NN;',16.98,32330.74,21.84,Yes
' NN;NN',17.05,51049.11,23.12,Yes
' JJ;NNS',17.11,40413.67,22.29,Yes
' VBN;NN',17.11,144287.4,43.82,Yes
' ;NNS;NN',17.11,268599.13,46.79,Yes
' NNP;NNP;',17.15,2835225.67,250.9,Yes
' NN;NN',17.3,121243.02,24.93,Yes
' NN;NNS',17.36,53885.23,23.23,Yes
' NN;NNS',17.43,53885.23,22.95,Yes
' JJ;NN',17.5,40413.67,22.29,Yes
' NN;NN',17.72,44087.73,10000,Yes
' NN;NN',17.72,43107.98,22.45,Yes
' VBG;NN',17.98,88176.47,24.25,Yes
' NNP;NNP;',18.07,7439620.51,10000,Yes
' NN;NN',18.13,74610.7,10000,Yes
' NN;NNS',18.19,49740.13,22.86,Yes
' VBG;NNS',18.24,960147.63,97.04,Yes
' ;NN;NN',18.3,60621.01,23.2,Yes
' VBG;NN',18.3,71847.31,23.63,Yes
' NN;NNS',18.3,80828.34,24.07,Yes
' NNP;NNP',18.3,6690677.17,10000,Yes
' NN;NN',18.3,161657.69,25.41,Yes
' NN;NN',18.57,96994.21,24.23,Yes
' NN;NN',18.57,129325.95,24.91,Yes
' JJ;NN;',18.72,60621.01,23.47,Yes
' JJ;NN',18.8,114111.01,10000,Yes
' JJ;NNS',18.89,349179.77,47.95,Yes
' ;NN;NN',18.98,129325.95,24.91,Yes
' JJ;NN',19.08,138563.59,25.21,Yes
' NN;NNS;',19.3,138563.59,25.21,Yes
' JJ;JJ;NN',19.3,161657.69,10000,Yes
' NN;NN',19.3,161657.69,25.41,Yes
' NNP;NN;NNS',19.4,2640418.23,10000,Yes
' JJ;NN',19.43,161657.69,10000,Yes
' JJ;JJ;NN',19.57,176353.93,10000,Yes
' ;NN;NNS',19.89,193989.43,10000,Yes
' NN;NNS',19.89,121243.02,24.93,Yes
' JJ;NN;',19.89,215543.92,10000,Yes
' NN;NN',19.98,969949.13,53.23,Yes
' NN;NN;NN;NNS',20.08,4041462.19,10000,Yes
' NN;NN',20.3,215543.92,26.09,Yes
' NN;NNS',20.3,387979.85,10000,Yes
' JJ;NN',20.3,323316.38,27.14,Yes
' NNP;IN;DT;NN',20.89,5388617.92,10000,Yes
' VBZ;DT;NN;',20.89,969951.13,10000,Yes
' NN;NN',20.89,5388617.92,10000,Yes
' NN;NNS',21.3,484975.06,10000,Yes
' NN;NN',21.89,646633.75,10000,Yes
' VBN;IN;DT;NN',21.89,969951.13,10000,Yes
' ;VBG;NNS',21.89,969951.13,10000,Yes
' NN;NNS',21.89,969951.13,10000,Yes
' ;VBG;NNS',21.89,969951.13,10000,Yes
' JJ;NNS',22.89,1939903.25,10000,Yes
' ;JJ;NN',22.89,1939903.25,10000,Yes
' ;NN;NNS',22.89,1939903.25,10000,Yes
' NN;NNS',22.89,969951.13,10000,Yes
' NN;NNS',22.89,969951.13,10000,Yes
' VB;RP;',10.73,1995.53,26.29,Yes
' ;VBD;RB;',11.26,678.95,13.94,Yes
' NNP;NN;',11.6,2585.54,16.56,Yes
' VBZ;RB',11.79,856.99,14.34,Yes
' VBZ;IN',11.83,1140.12,14.92,Yes
' VBG;IN;',11.98,4531.84,29.42,Yes
' VBN;IN',12.16,1266.91,15.13,Yes
' NN;NN',12.23,1258.68,15.1,Yes
' VBG;IN',12.31,31353.61,110.57,Yes
' VBG;IN',12.36,1302.7,15.21,Yes
' JJ;NN',12.47,1541.05,15.51,Yes
' ;IN;NNS',12.53,6232.41,30.77,Yes
' VB;IN',12.58,12611.44,46.63,Yes
' VB;NN',12.72,1857.15,15.89,Yes
' NN;NN',12.81,8310.88,31.81,Yes
' VBD;IN',12.91,1938.9,16.03,Yes
' VBZ;IN',12.95,2073.76,16.15,Yes
' NN;NN',13.02,4617.82,17.76,Yes
' JJ;NN',13.11,4542.1,17.78,Yes
' VBG;RB',13.14,2130.76,16.17,Yes
' NN;NN',13.17,2281.24,16.35,Yes
' VBP;NN',13.25,12197.66,33.67,Yes
' NN;NN',13.32,15557.73,34.41,Yes
' NN;NNS',13.57,2988.07,16.89,Yes
' NN;NN',13.76,3758.5,17.35,Yes
' NN;NN',13.78,3591.42,17.24,Yes
' NN;NN',13.81,3743.99,17.33,Yes
' JJ;NN',13.91,4032.07,17.48,Yes
' ;JJ;NN',13.92,44745.97,70.32,Yes
' ;NN;NN',13.96,88866.7,91.37,Yes
' NNP;NNP',13.97,77939.58,41.15,Yes
' NN;NNS',13.98,6061.2,18.35,Yes
' NN;NN',14.04,5213.8,18.18,Yes
' IN;NN;',14.05,5104.01,17.98,Yes
' NN;NN',14.19,20537.16,35.58,Yes
' NNP;NNP',14.32,1760276.49,103.82,Yes
' JJ;NN;',14.33,7758.62,18.92,Yes
' JJ;NN;',14.36,10102.67,19.39,Yes
' VBN;IN',14.36,5213.8,18.28,Yes
' ;JJ;NN',14.46,5510.09,18.16,Yes
' VBP;NN;',14.47,25864.39,21.51,Yes
' ;NN;NNS',14.51,8433.37,19,Yes
' JJ;NN',14.56,39676.86,38.37,Yes
' JJ;NNS',14.8,67352.79,57.03,Yes
' NN;NN',14.81,17319.57,20.51,Yes
' VBN;NNS',14.81,11973.72,19.77,Yes
' VBN;IN',14.95,7821.19,19.32,Yes
' NN;NN',14.98,7884.79,18.92,Yes
' NN;NN',15.14,8737.31,19.13,Yes
' NN;NN',15.17,8776.85,19.07,Yes
' NN;NN',15.24,13855.46,20.02,Yes
' NNP;NN',15.3,107771.46,24.5,Yes
' VBG;IN;',15.44,11084.17,10000,Yes
' NN;NNS',15.52,11084.17,19.59,Yes
' NN;NN',15.55,13470.56,20.01,Yes
' VBN;RB',15.56,11546.05,19.67,Yes
' JJ;NNS',15.6,13470.56,20.01,Yes
' VBG;NN',15.6,387979.85,10000,Yes
' NN;NN',15.73,60619.01,40.07,Yes
' NN;NNS',15.78,14584.75,20.15,Yes
' NNP;NNP',15.91,57055.01,23.35,Yes
' VB;NN',15.94,134710.57,61.73,Yes
' NN;NN',15.98,87292.69,41.75,Yes
' NN;NN',15.98,14584.75,20.15,Yes
' NN;NN',16.08,27711.92,21.52,Yes
' NN;NNS',16.13,19398.04,20.78,Yes
' NN;NN',16.13,23093.1,21.19,Yes
' JJ;NN',16.13,23948.44,21.36,Yes
' NN;NNS',16.17,10428.59,19.9,Yes
' NNP;NN',16.22,28527,21.62,Yes
' JJ;NN;',16.3,32330.74,21.97,Yes
' ;NN;NN',16.36,521201.34,149.93,Yes
' NN;NN',16.45,210854.16,64.57,Yes
' JJ;NNS',16.5,30791.13,21.87,Yes
' VBN;RB',16.5,24247.8,21.6,Yes
' VBG;JJ;',16.55,24869.57,21.43,Yes
' NN;NN',16.57,396795.6,48.71,Yes
' ;NN;NNS',16.57,29391.49,21.77,Yes
' NN;NN',16.57,22043.37,21.09,Yes
' NN;NN',16.62,39588.88,22.25,Yes
' NN;NN',16.62,23093.1,21.1,Yes
' NN;NN',16.72,28527,21.62,Yes
' VBN;RB',16.76,24869.57,21.27,Yes
' NN;NN',16.78,46187.2,22.92,Yes
' JJ;NN',16.87,24869.57,21.27,Yes
' NN;NNS',16.89,28527,21.62,Yes
' NN;NNS',16.89,44087.73,22.82,Yes
' NN;NNS',16.91,146712.45,43.99,Yes
' JJ;NN',16.98,44087.73,22.53,Yes
' JJ;NN',17.08,107771.46,24.68,Yes
' NN;NNS',17.13,64662.48,23.32,Yes
' VBG;NNS',17.13,37304.85,22.48,Yes
' ;NNP;NNP',17.13,161657.69,25.55,Yes
' JJ;NN',17.15,346406.47,67.83,Yes
' JJ;NN',17.3,60621.01,23.2,Yes
' NN;NN',17.3,40413.67,22.35,Yes
' JJ;NNS;',17.4,218236.23,45.68,Yes
' NN;NN',17.5,64662.48,23.32,Yes
' JJ;NN',17.57,64662.48,23.32,Yes
' NNP;NNP',17.6,92375.39,24.17,Yes
' NN;NNS',17.64,38797.09,22.56,Yes
' ;NN;NN',17.64,46187.2,10000,Yes
' NN;NN',17.76,107771.46,24.5,Yes
' VBG;IN;NNS',17.98,64662.48,23.61,Yes
' NN;NNS',17.98,77595.17,23.72,Yes
' ;VBZ;NN',18.19,88176.47,10000,Yes
' NN;NNS',18.19,74610.7,23.91,Yes
' NN;NNS',18.3,74610.7,23.91,Yes
' ;NN;NN',18.3,363729.05,48.33,Yes
' VBD;NN',18.36,396795.6,10000,Yes
' ;NN;NN',18.5,96994.21,24.23,Yes
' JJ;NN',18.5,107771.46,24.68,Yes
' NN;NN',18.57,96994.21,24.45,Yes
' NN;NN',18.6,447667.21,49.7,Yes
' NN;NN',18.72,96994.21,24.45,Yes
' JJ;NN',18.8,107771.46,10000,Yes
' JJ;NN',19.08,1347150.73,10000,Yes
' VB;NN;',19.08,215543.92,10000,Yes
' JJ;NNS',19.08,121243.02,24.93,Yes
' NN;NN',19.19,161657.69,25.55,Yes
' NNP;NNS',19.3,96994.21,24.23,Yes
' JJ;JJ;NN;',19.3,3260105.86,10000,Yes
' NN;NN',19.43,161657.69,10000,Yes
' NN;NN',19.57,193989.43,25.95,Yes
' NN;NNS',19.57,176353.93,10000,Yes
' NN;NN',19.57,387979.85,10000,Yes
' NN;NN',19.57,646633.75,10000,Yes
' NN;NNS',19.72,1163939.55,54.14,Yes
' NNP;NNP',19.72,646633.75,10000,Yes
' NN;NN',19.89,242487.03,26.46,Yes
' VBD;DT;NN',19.89,242487.03,10000,Yes
' NN;NNS',19.89,484975.06,28.18,Yes
' NN;NN',19.89,242487.03,10000,Yes
' JJ;NN;',19.89,242487.03,26.46,Yes
' ;NN;NN',19.89,215543.92,26.09,Yes
' NN;NN',19.89,242487.03,10000,Yes
' NN;NN',19.89,242487.03,10000,Yes
' NNP;NNP',20.01,1469619.43,10000,Yes
' NN;NNS',20.57,387979.85,10000,Yes
' ;JJ;NNS',20.57,3233168.75,10000,Yes
' NN;IN;NN',20.89,484975.06,10000,Yes
' NN;NN',21.3,323316.38,27.14,Yes
' NNS;NN;NNS',21.3,646633.75,10000,Yes
' NN;NNS',21.89,969951.13,10000,Yes
' NN;NN',21.89,969951.13,10000,Yes
' VBG;IN;NN',22.89,1939903.25,10000,Yes
' NN;NN',22.89,969951.13,10000,Yes
' NN;NNS',22.89,1939903.25,10000,Yes
' NN;NN',22.89,1939903.25,10000,Yes
' VB;IN',8.1,73.02,9.42,Yes
' VBN;IN',9.93,6856.95,95.09,Yes
' JJ;NN',10.02,319.91,12.34,Yes
' VBN;JJ;',10.63,407.23,12.83,Yes
' NN;NN',10.69,756.78,14.07,Yes
' JJ;NN;',10.7,672.58,13.85,Yes
' VBD;NNS',10.75,354.49,12.58,Yes
' ;NNP;NNP',11.61,2565.01,16.56,Yes
' VBD;IN',12.02,4715.69,29.52,Yes
' JJ;NN;',12.18,1292.27,15.16,Yes
' ;NN;NN',12.41,2019.73,16.07,Yes
' NN;NNS',12.53,7065.48,31.15,Yes
' ;NN;NN',12.61,1648.58,15.67,Yes
' NN;NNS',13.17,5387.62,18.1,Yes
' NN;NN',13.47,3519.7,17.19,Yes
' NN;NN',13.51,2674.73,16.63,Yes
' NN;NN',13.62,3551.94,17.22,Yes
' NNP;NN;',13.89,33701.9,37.92,Yes
' JJ;NN',13.91,3645.44,17.27,Yes
' JJ;NN',13.93,18892.17,35.35,Yes
' JJ;NN',13.93,4458.55,17.68,Yes
' NN;NN',13.96,88866.7,91.37,Yes
' NN;NN',14.01,77016.61,89.95,Yes
' NN;NN',14.26,7347.12,18.78,Yes
' NN;NN',14.36,6380.26,18.58,Yes
' NN;NN',14.55,99375.34,60.09,Yes
' JJ;NN;',14.66,29488.79,37.07,Yes
' NNP;NN',15.28,1454919.19,125.87,Yes
' JJ;NN;',15.35,9555.18,19.29,Yes
' NN;NN',15.36,17319.57,20.51,Yes
' VBZ;DT;NN',15.5,13855.46,20.05,Yes
' NN;NNS',15.52,12931.7,19.92,Yes
' ;NN;NN',15.62,16579.38,20.4,Yes
' NN;NN',15.81,55424.84,22.98,Yes
' ;NN;NN',15.91,14695.24,20.19,Yes
' NN;NN',15.99,15154.5,20.22,Yes
' JJ;NNS',16.02,92375.39,24.17,Yes
' JJ;NN;',16.08,186524.25,63.64,Yes
' NN;NNS',16.13,17961.08,20.68,Yes
' NN;NN',16.13,129325.95,24.91,Yes
' NN;NN',16.13,26942.11,21.44,Yes
' JJ;NNS',16.17,19398.04,20.78,Yes
' ;NN;NN',16.2,173200.74,63.31,Yes
' JJ;NN',16.26,252586.7,65.93,Yes
' NN;NNS',16.5,23093.1,21.12,Yes
' NNP;IN;NN',16.55,167873.33,45.04,Yes
' JJ;NN',16.6,35269.99,22.02,Yes
' ;NN;NN',16.6,40413.67,22.35,Yes
' JJ;NN',16.64,23093.1,21.19,Yes
' ;NN;NN',16.66,107769.46,42.79,Yes
' JJ;NNS',16.69,209941.35,64.48,Yes
' JJ;NNS',16.76,364189.58,88.19,Yes
' JJ;NN',16.87,373053.51,68.33,Yes
' NN;NNS',16.89,16438.87,20.82,Yes
' NN;NNS',17.05,25524.06,21.39,Yes
' VBD;JJ',17.24,349179.77,47.95,Yes
' JJ;NN;',17.3,498829.52,49.58,Yes
' JJ;NNS',17.57,48496.61,22.7,Yes
' JJ;NNS',17.64,40413.67,22.43,Yes
' NN;NN',17.72,53885.23,22.92,Yes
' NN;NN',17.72,107771.46,24.5,Yes
' NN;NN',17.84,71847.31,23.63,Yes
' JJ;NN',17.98,60621.01,23.47,Yes
' NN;NN',17.98,64662.48,23.41,Yes
' NN;NN',18.08,77595.17,10000,Yes
' NN;NNS',18.19,69281.29,23.75,Yes
' VBG;RB',18.36,80828.34,10000,Yes
' JJ;NN',18.5,92375.39,24.17,Yes
' NN;NNS',18.72,161657.69,25.55,Yes
' JJ;NN;',18.72,2182389.28,10000,Yes
' NN;NN',18.94,2494153.61,131.81,Yes
' JJ;NN',18.98,121243.02,10000,Yes
' NN;NNS',19.08,161657.69,25.55,Yes
' ;VBG;NNS',19.3,161657.69,25.55,Yes
' NNS;NNS',19.3,138563.59,25.21,Yes
' NN;NNS',19.57,1901099.17,105.36,Yes
' NNP;IN;NN',19.57,484975.06,10000,Yes
' JJ;NN',20.08,323316.38,10000,Yes
' NN;NNS',20.08,277128.18,10000,Yes
' NN;NN',20.3,215543.92,26.09,Yes
' NN;NN',20.3,277128.18,10000,Yes
' NN;NNS',21.3,2909853.38,10000,Yes
' NN;NN',21.3,969951.13,10000,Yes
' JJ;JJ;NN',22.89,1939903.25,10000,Yes
' NN;NNS',22.89,1939903.25,10000,Yes
' ;VBZ;RB;JJ;',14.47,5877.5,10000,No
' ;NNS;IN;NN',19.3,138563.59,10000,No
' ;IN;NNS;',9.59,2020.38,45.25,No
' ;VBZ;RB;',11.97,880.77,14.4,No
' ;VBN;TO;VB;',13.58,13853.46,34.14,No
' ;JJ;NNS;',15.5,11546.05,19.69,No
' ;NNS;IN;NN;',18.57,96994.21,24.23,No
' ;VBG;IN;DT;NN;',20.89,646633.75,24.17,No
' ;IN;NN;',8.59,1504.53,50.12,No
' ;NNS;IN;JJ;NNS;',22.89,1939903.25,10000,No
' ;VBG;IN;',13.31,32635.62,10000,No
' ;JJ;NN;',15.84,14695.24,20.14,No
' ;VBG;JJ;',15.52,57617.92,41.22,No
' ;NN;NNS;',22.89,1939903.25,10000,No
' ;IN;NN;',10.39,398.65,12.93,No
' ;VBZ;IN;',5.81,276.8,36.82,No
' ;JJ;NNS;',18.57,80828.34,23.82,No
' ;VBG;JJ;',14.98,8360.66,19,No
' ;VBG;NN;',14.17,4458.55,17.68,No
' ;IN;NNS;',12.2,798.3,14.52,No
' ;VBZ;RB;',9.12,148.96,10.87,No
' ;JJ;NN;',13.4,2448.37,16.45,No
' ;NN;IN;NN;',17.98,66892.25,10000,No
' ;IN;NN;',8.59,1504.53,50.12,No
' ;VBZ;RB;',10.37,2757.45,37.65,No
' ;VBN;IN;',13.05,206336.6,434.11,No
' ;JJ;NN;',18.98,107771.46,24.5,No
' ;NN;NN;',17.84,53885.23,23.03,No
' ;VBZ;RB;',9.2,4279.37,87.33,No
' ;VBN;IN;',12.23,1228.34,15.62,No
' ;VBP;JJ;',8.24,741.01,29.73,No
' ;NN;NN;',18.89,129325.95,24.91,No
' ;VBZ;DT;JJ;NN;',21.89,969951.13,25.95,No
' ;NN;IN;DT;NN;',17.03,39588.88,18.46,No
' ;VBN;IN;DT;NN;',21.89,969951.13,28.18,No
' ;IN;NNS;',9.18,114.85,10.5,No
' ;VBP;RB;',9.65,1730.78,34.48,No
' ;VBN;IN;',13.98,19482.65,10000,No
' ;VBG;JJ;',18.43,80828.34,24.07,No
' ;NNS;IN;NN;',21.89,969951.13,10000,No
' ;VBZ;DT;NN;',11.82,938.88,14.52,No
' ;IN;NN;',7.71,243.27,17.71,No
' ;JJ;NN;',17.76,55424.84,22.98,No
' ;VBZ;DT;JJ;NN;',22.89,1939903.25,10000,No
' ;NN;IN;NN;',17.24,74610.7,10000,No
' ;VBZ;DT;NN;',15.13,8980.04,19.6,No
' ;IN;NN;',15.31,88818.45,58.77,No
' ;NN;CC;NN;',19.57,193989.43,10000,No
' ;VBD;RB;IN;',16.57,24869.57,10000,No
' ;NN;IN;JJ;NN;',21.89,1939903.25,10000,No
' ;VBN;IN;',13.47,2885.76,10000,No
' ;JJ;NNS;',17.13,38036.34,22.3,No
' ;NNP;NNP;',18.08,242487.03,26.46,No
' ;IN;NN;',8.29,76.35,9.51,No
' ;VBP;RB;',12.9,1908.35,16.16,No
' ;VBN;IN;',10.03,240.28,11.85,No
' ;VBZ;JJ;',17.24,32330.74,21.82,No
' ;IN;NNS;',9.73,191.19,11.37,No
' ;VBN;RB;IN;IN;',20.89,484975.06,28.18,No
' ;VBZ;IN;',13.31,11988.17,10000,No
' ;VBG;JJ;',16.55,24869.57,21.43,No
' ;NN;NN;',17.72,121243.02,24.73,No
' ;NNS;IN;DT;NN;',20.57,3233168.75,10000,No
' ;VBP;NNP;',18.57,1796202.64,10000,No
' ;IN;NNP;',18.89,1939903.25,10000,No
' ;NN;CC;NNP;',19.89,277128.18,10000,No
' ;VBZ;RB;',7.66,43656.12,1425.65,No
' ;VBN;IN;',10.35,655.48,10000,No
' ;JJ;NNS;',17.64,60621.01,23.47,No
' ;NN;NN;NN;',18.57,107771.46,24.68,No
' ;NN;IN;NN;',22.89,1939903.25,10000,No
' ;IN;NN;',7.01,35.21,8.03,No
' ;VBZ;RB;',12.03,4720.79,30.6,No
' ;VBN;IN;',16.23,19398.04,10000,No
' ;VBG;JJ;',20.3,323316.38,27.14,No
' ;NN;NN;',18.57,436475.46,48.96,No
' ;VB;DT;JJ;NN;',22.89,1939903.25,10000,No
' ;NNS;IN;DT;NN;',20.57,3233168.75,10000,No
' ;VBN;IN;NNS;',22.89,1939903.25,10000,No
' ;IN;NN;',7.71,315.09,18.76,No
' ;JJ;NN;',12.94,2203.44,16.25,No
' ;NNP;NNP;',18.57,646633.75,10000,No
' ;IN;NNS;',9.69,3342.37,59.25,No
' ;VBN;IN;',8.28,83327.6,1975.99,No
' ;VBN;TO;VB;',20.89,484975.06,10000,No
' ;JJ;NNS;',18.89,114111.01,10000,No
' ;VBP;NNP;',17.5,46187.2,22.7,No
' ;IN;NN;',8.37,95.54,10.09,No
' ;VBZ;RB;',10.64,11232.13,103.75,No
' ;JJ;NN;',18.13,53885.23,22.95,No
' ;NN;NN;',18.19,80828.34,24.07,No
' ;NN;IN;NN;',20.3,323316.38,27.14,No
' ;IN;NN;',11.18,1734.75,27.18,No
' VBG;IN;',13.31,32635.62,10000,No
' ;JJ;NNS;',18.57,92375.39,10000,No
' ;NNS;NN;',14.76,6805.68,18.55,No
' ;VBN;TO;VB;',18.3,80828.34,23.88,No
' ;VBZ;NN;',9.22,138.97,10.73,No
' ;IN;NN;',10.88,398.65,12.93,No
' ;VB;RB',14.59,6878.09,18.83,No
' ;VBG;IN;',9.38,110489.27,1783.04,No
' ;VBZ;NN;',19.3,80828.34,24.07,No
' ;IN;NNP;',9.59,192.08,11.68,No
' ;VBD;RB;',11.1,10175.88,70.37,No
' ;VBN;IN;',8.45,88.37,9.8,No
' ;VBZ;JJ;',15.84,16164.87,20.34,No
' ;NN;IN;DT;NN;',20.89,4364781.56,10000,No
' ;VBZ;DT;NN;',12.23,1282.01,15.17,No
' ;IN;NN;',10.03,281.74,12.44,No
' ;NN;IN;JJ;NNS;',21.3,646633.75,28.18,No
' ;VBN;IN;',9.38,12000.26,195.37,No
' ;VB;DT;JJ;NN;',22.89,1939903.25,10000,No
' ;NN;IN;NN;',22.89,1939903.25,10000,No
' ;VBD;IN;',13.98,4329.14,10000,No
' ;VBZ;DT;NN;',17.64,46187.2,10000,No
' ;IN;NN;',7.48,143.81,11,No
' ;JJ;NN;',11.21,575.84,13.55,No
' ;VBZ;RP;',14.15,4271.92,18.11,No
' ;NN;IN;DT;NN;',16.26,20858.19,21.07,No
' ;IN;NN;',10.66,359.85,12.68,No
' ;VBZ;RB;RB',15.34,137754.32,81.46,No
' ;VBN;IN;',13.47,24051.35,10000,No
' ;VB;TO;VB;',15.81,14368.66,20.17,No
' ;JJ;NNS;',17.98,60621.01,23.47,No
' VBG;JJ;',21.89,969951.13,10000,No
' ;IN;NNP;',10.91,487.64,13.37,No
' ;VBZ;RB;IN;',17.64,256749.03,46.82,No
' ;VBN;IN;',12.15,5193.17,30.69,No
' ;JJ;JJ;NN;',22.89,1939903.25,10000,No
' ;NN;NNS;',13.04,2551.51,16.58,No
' ;NNS;IN;NN;',17.57,594088.68,10000,No
' ;VBG;NN;',11.9,992.29,14.63,No
' ;IN;NN;',7.89,3964.89,148.2,No
' ;VBZ;RB;',19.3,161657.69,25.55,No
' ;VB;IN;',12.23,15052.46,62.48,No
' ;JJ;NN;',12.1,1196.47,15,No
' ;NN;IN;NN',11.15,4364781.56,10000,No
' ;VBZ;NN;',10.44,348.91,12.67,No
' IN;NNP;',12.25,12434.28,19.84,No
' ;VBZ;RB;IN;',17.64,256749.03,46.82,No
' ;VBZ;IN;',8.28,3885.7,109.93,No
' ;VBZ;TO;VB;',15.57,12355.08,10000,No
' ;JJ;NN;',13.07,2693.31,16.76,No
' ;VB;DT;JJ;NN;',22.89,1939903.25,10000,No
' ;VBN;IN;NNP;',19.57,193989.43,10000,No
' ;VBZ;RB;',9.2,4279.37,87.33,No
' VBG;IN;',13.98,2164.07,16.75,No
' ;JJ;NN;',12.6,12806.35,33.59,No
' ;NN;IN;DT;NN',21.3,646633.75,26.46,No
' ;VBN;IN;DT;NN;',22.89,1939903.25,10000,No
' ;IN;NN;',7.89,3964.89,148.2,No
' ;VBZ;RB;IN;',17.26,176351.93,44.72,No
' ;VBG;IN;',11.65,818.56,14.57,No
' ;VBD;NNP;',8.69,145.7,10.84,No
' ;NNP;CC;NNP;',21.89,969951.13,10000,No
' ;VBN;IN;',10.69,7853.13,77.21,No
' ;NN;NN;NN',18.36,161657.69,10000,No
' ;JJ;NN;',12.21,5476.96,30.22,No
' ;NNP;NNP;',22.89,1939903.25,10000,No
' ;VBG;NNS;',16.43,22043.37,21.09,No
' ;IN;NNP;',8.91,542.3,21.04,No
' ;NNP;CC;NNP;',21.89,969951.13,10000,No
' ;JJ;NNS;',12.72,37073.41,109.26,No
' ;VBD;JJ;',13.71,15325.48,34.38,No
' ;NN;IN;NN',20.89,484975.06,10000,No
' ;VBG;IN;DT;NNS;',20.89,484975.06,10000,No
' ;IN;NNP;',10.61,1905.52,26.98,No
' ;VBN;RB;IN;',11.8,945.76,10000,No
' ;VBG;IN;',8.81,140.81,10.86,No
' ;JJ;NN;',17.19,29843.68,21.67,No
' ;NNS;IN;JJ;NN;',22.89,1939903.25,10000,No
' ;VBN;IN;',11.42,3158.17,28.41,No
' ;VBN;JJ;',14.83,7183.83,18.66,No
' ;NN;NN;',17.36,80828.34,24.07,No
' ;VBD;IN;NN;',22.89,1939903.25,10000,No
' ;IN;NN;',14.95,8015.13,19.37,No
' ;VBD;IN;',15.95,15643.39,10000,No
' ;VBD;JJ;',11.11,4615.58,43.46,No
' ;VBD;IN;DT;NN;',21.89,969951.13,10000,No
' IN;NNP;',7.53,493.37,13.27,No
' ;NNS;CC;NN;',15.25,10155.57,10000,No
' ;VB;RB;IN;',13.07,2920.54,10000,No
' ;VBD;IN;',9.5,438.39,13.16,No
' ;VBD;TO;VB;',16.98,32330.74,21.82,No
' IN;NN;',10.03,1482.11,15.65,No
' ;NNP;CC;NNP;',22.89,1939903.25,10000,No
' ;VBD;RB;IN;',13.84,4585.06,10000,No
' ;JJ;NNP;',22.89,1939903.25,10000,No
' ;NNS;IN;NN',21.3,646633.75,10000,No
' ;VBD;PRP$;NN;',20.89,387979.85,10000,No
' ;IN;NNP;',9.74,2351.2,37.33,No
' ;VBN;IN;',10.88,480.13,13.3,No
' ;NN;IN;NN',21.3,646633.75,10000,No
' ;IN;NNP;',12.31,1344.29,15.8,No
' ;VBD;RB;',10.98,478.23,13.19,No
' ;VBD;IN;',9.06,139.25,10.72,No
' ;VBD;TO;VB;',16.17,79356.72,41.27,No
' ;JJ;NNS;',11.94,5013.99,29.81,No
' ;VB;NN;',16.5,18474.28,20.68,No
' IN;NNP;',11.03,2045.31,16.12,No
' ;VBD;DT;JJ;NN;',22.89,1939903.25,10000,No
' ;NNS;IN;NN',20.89,484975.06,10000,No
' ;NNS;CC;NNS;',22.89,1939903.25,10000,No
' ;NNS;IN;JJ;NNS;',18.72,129325.95,10000,No
' ;NN;IN;NN',21.3,969951.13,10000,No
' ;IN;NNS;',9.29,1319.79,33.34,No
' ;VBD;RB',11.86,971.38,14.59,No
' ;VBD;IN;',8.95,1114.53,32.23,No
' ;VBD;IN;NNP;',16.11,21553.49,20.95,No
' ;IN;NNP;',9.74,2351.2,37.33,No
' ;VBD;IN;',9.69,8063.95,118.91,No
' ;JJ;NN;',19.89,193989.43,25.95,No
' ;NNP;NNP;',20.89,484975.06,10000,No
' ;VBN;IN;PRP$;NNS;',22.89,1939903.25,10000,No
' ;NN;IN;JJ;NN;',22.89,1939903.25,10000,No
' ;VBN;IN;',11.61,969.92,14.58,No
' ;NNP;NNP;',20.08,138563.59,25.21,No
' ;IN;NNP;',12.96,2786.22,16.82,No
' ;VBN;IN;',8.24,15971.47,388.72,No
' ;JJ;NN;',13.51,2924.95,16.83,No
' ;NN;IN;DT;NN;',19.3,193989.43,10000,No
' ;VBZ;DT;NN;',19.3,161657.69,25.55,No
' ;IN;NNP;',11.65,813.4,14.56,No
' ;VBG;IN;IN;',14.98,10263.04,10000,No
' ;JJ;NN;',14.26,8289.19,18.95,No
' NNP;NNP;',14.98,36370.2,37.93,No
' ;VBN;NNP;',11.77,1525.28,15.49,No
' ;VBG;IN;',8.73,134.56,10.65,No
' ;JJ;NNP;',18.77,932641.27,76.05,No
' ;VBD;JJ;',22.89,1939903.25,10000,No
' ;VBD;IN;NN;',18.43,107771.46,24.68,No
' ;IN;NN;',9.74,1195.95,24.12,No
' ;JJ;NN;',19.08,138563.59,10000,No
' ;NN;IN;NN;',18.43,107771.46,10000,No
' ;IN;NN;',9.74,1195.95,24.12,No
' ;VBD;RB;',13.44,12844.05,35.18,No
' ;VBN;IN;',12.09,22141.55,92.38,No
' ;VBD;NNP;',15.19,9947.23,19.33,No
' ;IN;NNP;',10.98,588.64,13.57,No
' ;VBD;IN;',14.02,4281.35,10000,No
' ;JJ;NNP;',22.89,1939903.25,10000,No
' ;NNP;NNP;',16.11,185732.51,10000,No
' ;VBD;DT;NN;',14.02,4368.15,10000,No
' ;VBD;RB;',17.11,35269.99,22.02,No
' ;JJ;NNP;',14.81,32091,37.42,No
' ;VBZ;RB;',10.21,47223.39,495.93,No
' ;JJ;NNP;',13.52,3438.55,17.17,No
' ;VBG;JJ;',15.64,26942.11,21.42,No
' ;NNP;NNP;',14.73,22821.4,21.12,No
' ;IN;NNP;',11.7,706.48,14.08,No
' ;VBD;RB;',10.46,12950.11,127.7,No
' ;VBD;IN;',13.29,21406.75,51.78,No
' ;VBD;JJ;',9.29,169.17,11.26,No
' ;VBG;DT;JJ;NN',22.89,1939903.25,10000,No
' ;VBD;IN;NN;',22.89,1939903.25,10000,No
' ;IN;NN;',10.61,423.12,13.49,No
' ;VBD;RB;IN;',16.64,181863.02,10000,No
' ;VBD;IN;',11.61,849.84,10000,No
' ;NNS;NN;',17.98,60621.01,23.47,No
' ;IN;NNS;',10.18,192.08,11.68,No
' ;VBD;IN;',15.02,8396.85,19.24,No
' ;VBD;DT;JJ;NN;',22.89,1939903.25,10000,No
' ;NNP;IN;NN',18.24,102099.22,10000,No
' ;VBN;NN;',14.04,6781.88,18.54,No
' ;IN;NNP;',10.99,8684.35,67.83,No
' ;VBN;IN;',14.57,27976.39,37.28,No
